^L:\SELECT-FIX\LMESELECT FIX API KIT\CRYPTO\CRYPTOPP561\WIN32\CRYPTOPP\DEBUG\ALGEBRA.OBJ|L:\SELECT-FIX\LMESELECT FIX API KIT\CRYPTO\CRYPTOPP561\WIN32\CRYPTOPP\DEBUG\ALGPARAM.OBJ|L:\SELECT-FIX\LMESELECT FIX API KIT\CRYPTO\CRYPTOPP561\WIN32\CRYPTOPP\DEBUG\ASN.OBJ|L:\SELECT-FIX\LMESELECT FIX API KIT\CRYPTO\CRYPTOPP561\WIN32\CRYPTOPP\DEBUG\AUTHENC.OBJ|L:\SELECT-FIX\LMESELECT FIX API KIT\CRYPTO\CRYPTOPP561\WIN32\CRYPTOPP\DEBUG\BASECODE.OBJ|L:\SELECT-FIX\LMESELECT FIX API KIT\CRYPTO\CRYPTOPP561\WIN32\CRYPTOPP\DEBUG\CBCMAC.OBJ|L:\SELECT-FIX\LMESELECT FIX API KIT\CRYPTO\CRYPTOPP561\WIN32\CRYPTOPP\DEBUG\CCM.OBJ|L:\SELECT-FIX\LMESELECT FIX API KIT\CRYPTO\CRYPTOPP561\WIN32\CRYPTOPP\DEBUG\CHANNELS.OBJ|L:\SELECT-FIX\LMESELECT FIX API KIT\CRYPTO\CRYPTOPP561\WIN32\CRYPTOPP\DEBUG\CMAC.OBJ|L:\SELECT-FIX\LMESELECT FIX API KIT\CRYPTO\CRYPTOPP561\WIN32\CRYPTOPP\DEBUG\CPU.OBJ|L:\SELECT-FIX\LMESELECT FIX API KIT\CRYPTO\CRYPTOPP561\WIN32\CRYPTOPP\DEBUG\CRYPTLIB.OBJ|L:\SELECT-FIX\LMESELECT FIX API KIT\CRYPTO\CRYPTOPP561\WIN32\CRYPTOPP\DEBUG\CRYPTOPP.RES|L:\SELECT-FIX\LMESELECT FIX API KIT\CRYPTO\CRYPTOPP561\WIN32\CRYPTOPP\DEBUG\DES.OBJ|L:\SELECT-FIX\LMESELECT FIX API KIT\CRYPTO\CRYPTOPP561\WIN32\CRYPTOPP\DEBUG\DESSP.OBJ|L:\SELECT-FIX\LMESELECT FIX API KIT\CRYPTO\CRYPTOPP561\WIN32\CRYPTOPP\DEBUG\DH.OBJ|L:\SELECT-FIX\LMESELECT FIX API KIT\CRYPTO\CRYPTOPP561\WIN32\CRYPTOPP\DEBUG\DLL.OBJ|L:\SELECT-FIX\LMESELECT FIX API KIT\CRYPTO\CRYPTOPP561\WIN32\CRYPTOPP\DEBUG\DSA.OBJ|L:\SELECT-FIX\LMESELECT FIX API KIT\CRYPTO\CRYPTOPP561\WIN32\CRYPTOPP\DEBUG\EC2N.OBJ|L:\SELECT-FIX\LMESELECT FIX API KIT\CRYPTO\CRYPTOPP561\WIN32\CRYPTOPP\DEBUG\ECCRYPTO.OBJ|L:\SELECT-FIX\LMESELECT FIX API KIT\CRYPTO\CRYPTOPP561\WIN32\CRYPTOPP\DEBUG\ECP.OBJ|L:\SELECT-FIX\LMESELECT FIX API KIT\CRYPTO\CRYPTOPP561\WIN32\CRYPTOPP\DEBUG\EMSA2.OBJ|L:\SELECT-FIX\LMESELECT FIX API KIT\CRYPTO\CRYPTOPP561\WIN32\CRYPTOPP\DEBUG\EPRECOMP.OBJ|L:\SELECT-FIX\LMESELECT FIX API KIT\CRYPTO\CRYPTOPP561\WIN32\CRYPTOPP\DEBUG\FILES.OBJ|L:\SELECT-FIX\LMESELECT FIX API KIT\CRYPTO\CRYPTOPP561\WIN32\CRYPTOPP\DEBUG\FILTERS.OBJ|L:\SELECT-FIX\LMESELECT FIX API KIT\CRYPTO\CRYPTOPP561\WIN32\CRYPTOPP\DEBUG\FIPS140.OBJ|L:\SELECT-FIX\LMESELECT FIX API KIT\CRYPTO\CRYPTOPP561\WIN32\CRYPTOPP\DEBUG\FIPSTEST.OBJ|L:\SELECT-FIX\LMESELECT FIX API KIT\CRYPTO\CRYPTOPP561\WIN32\CRYPTOPP\DEBUG\GCM.OBJ|L:\SELECT-FIX\LMESELECT FIX API KIT\CRYPTO\CRYPTOPP561\WIN32\CRYPTOPP\DEBUG\GF2N.OBJ|L:\SELECT-FIX\LMESELECT FIX API KIT\CRYPTO\CRYPTOPP561\WIN32\CRYPTOPP\DEBUG\GFPCRYPT.OBJ|L:\SELECT-FIX\LMESELECT FIX API KIT\CRYPTO\CRYPTOPP561\WIN32\CRYPTOPP\DEBUG\HEX.OBJ|L:\SELECT-FIX\LMESELECT FIX API KIT\CRYPTO\CRYPTOPP561\WIN32\CRYPTOPP\DEBUG\HMAC.OBJ|L:\SELECT-FIX\LMESELECT FIX API KIT\CRYPTO\CRYPTOPP561\WIN32\CRYPTOPP\DEBUG\HRTIMER.OBJ|L:\SELECT-FIX\LMESELECT FIX API KIT\CRYPTO\CRYPTOPP561\WIN32\CRYPTOPP\DEBUG\INTEGER.OBJ|L:\SELECT-FIX\LMESELECT FIX API KIT\CRYPTO\CRYPTOPP561\WIN32\CRYPTOPP\DEBUG\ITERHASH.OBJ|L:\SELECT-FIX\LMESELECT FIX API KIT\CRYPTO\CRYPTOPP561\WIN32\CRYPTOPP\DEBUG\MISC.OBJ|L:\SELECT-FIX\LMESELECT FIX API KIT\CRYPTO\CRYPTOPP561\WIN32\CRYPTOPP\DEBUG\MODES.OBJ|L:\SELECT-FIX\LMESELECT FIX API KIT\CRYPTO\CRYPTOPP561\WIN32\CRYPTOPP\DEBUG\MQUEUE.OBJ|L:\SELECT-FIX\LMESELECT FIX API KIT\CRYPTO\CRYPTOPP561\WIN32\CRYPTOPP\DEBUG\NBTHEORY.OBJ|L:\SELECT-FIX\LMESELECT FIX API KIT\CRYPTO\CRYPTOPP561\WIN32\CRYPTOPP\DEBUG\OAEP.OBJ|L:\SELECT-FIX\LMESELECT FIX API KIT\CRYPTO\CRYPTOPP561\WIN32\CRYPTOPP\DEBUG\OSRNG.OBJ|L:\SELECT-FIX\LMESELECT FIX API KIT\CRYPTO\CRYPTOPP561\WIN32\CRYPTOPP\DEBUG\PCH.OBJ|L:\SELECT-FIX\LMESELECT FIX API KIT\CRYPTO\CRYPTOPP561\WIN32\CRYPTOPP\DEBUG\PKCSPAD.OBJ|L:\SELECT-FIX\LMESELECT FIX API KIT\CRYPTO\CRYPTOPP561\WIN32\CRYPTOPP\DEBUG\PSSR.OBJ|L:\SELECT-FIX\LMESELECT FIX API KIT\CRYPTO\CRYPTOPP561\WIN32\CRYPTOPP\DEBUG\PUBKEY.OBJ|L:\SELECT-FIX\LMESELECT FIX API KIT\CRYPTO\CRYPTOPP561\WIN32\CRYPTOPP\DEBUG\QUEUE.OBJ|L:\SELECT-FIX\LMESELECT FIX API KIT\CRYPTO\CRYPTOPP561\WIN32\CRYPTOPP\DEBUG\RANDPOOL.OBJ|L:\SELECT-FIX\LMESELECT FIX API KIT\CRYPTO\CRYPTOPP561\WIN32\CRYPTOPP\DEBUG\RDTABLES.OBJ|L:\SELECT-FIX\LMESELECT FIX API KIT\CRYPTO\CRYPTOPP561\WIN32\CRYPTOPP\DEBUG\RIJNDAEL.OBJ|L:\SELECT-FIX\LMESELECT FIX API KIT\CRYPTO\CRYPTOPP561\WIN32\CRYPTOPP\DEBUG\RNG.OBJ|L:\SELECT-FIX\LMESELECT FIX API KIT\CRYPTO\CRYPTOPP561\WIN32\CRYPTOPP\DEBUG\RSA.OBJ|L:\SELECT-FIX\LMESELECT FIX API KIT\CRYPTO\CRYPTOPP561\WIN32\CRYPTOPP\DEBUG\RW.OBJ|L:\SELECT-FIX\LMESELECT FIX API KIT\CRYPTO\CRYPTOPP561\WIN32\CRYPTOPP\DEBUG\SHA.OBJ|L:\SELECT-FIX\LMESELECT FIX API KIT\CRYPTO\CRYPTOPP561\WIN32\CRYPTOPP\DEBUG\SIMPLE.OBJ|L:\SELECT-FIX\LMESELECT FIX API KIT\CRYPTO\CRYPTOPP561\WIN32\CRYPTOPP\DEBUG\SKIPJACK.OBJ|L:\SELECT-FIX\LMESELECT FIX API KIT\CRYPTO\CRYPTOPP561\WIN32\CRYPTOPP\DEBUG\STRCIPHR.OBJ|L:\SELECT-FIX\LMESELECT FIX API KIT\CRYPTO\CRYPTOPP561\WIN32\CRYPTOPP\DEBUG\TRDLOCAL.OBJ
C:\PROGRAM FILES (X86)\WINDOWS KITS\8.0\LIB\WIN8\UM\X86\KERNEL32.LIB
C:\PROGRAM FILES (X86)\WINDOWS KITS\8.0\LIB\WIN8\UM\X86\USER32.LIB
C:\PROGRAM FILES (X86)\WINDOWS KITS\8.0\LIB\WIN8\UM\X86\GDI32.LIB
C:\PROGRAM FILES (X86)\WINDOWS KITS\8.0\LIB\WIN8\UM\X86\WINSPOOL.LIB
C:\PROGRAM FILES (X86)\WINDOWS KITS\8.0\LIB\WIN8\UM\X86\COMDLG32.LIB
C:\PROGRAM FILES (X86)\WINDOWS KITS\8.0\LIB\WIN8\UM\X86\ADVAPI32.LIB
C:\PROGRAM FILES (X86)\WINDOWS KITS\8.0\LIB\WIN8\UM\X86\SHELL32.LIB
C:\PROGRAM FILES (X86)\WINDOWS KITS\8.0\LIB\WIN8\UM\X86\OLE32.LIB
C:\PROGRAM FILES (X86)\WINDOWS KITS\8.0\LIB\WIN8\UM\X86\OLEAUT32.LIB
C:\PROGRAM FILES (X86)\WINDOWS KITS\8.0\LIB\WIN8\UM\X86\UUID.LIB
C:\PROGRAM FILES (X86)\WINDOWS KITS\8.0\LIB\WIN8\UM\X86\ODBC32.LIB
C:\PROGRAM FILES (X86)\WINDOWS KITS\8.0\LIB\WIN8\UM\X86\ODBCCP32.LIB
L:\SELECT-FIX\LMESELECT FIX API KIT\CRYPTO\CRYPTOPP561\WIN32\CRYPTOPP\DEBUG\CRYPTOPP.RES
L:\SELECT-FIX\LMESELECT FIX API KIT\CRYPTO\CRYPTOPP561\WIN32\CRYPTOPP\DEBUG\ALGEBRA.OBJ
L:\SELECT-FIX\LMESELECT FIX API KIT\CRYPTO\CRYPTOPP561\WIN32\CRYPTOPP\DEBUG\ALGPARAM.OBJ
L:\SELECT-FIX\LMESELECT FIX API KIT\CRYPTO\CRYPTOPP561\WIN32\CRYPTOPP\DEBUG\ASN.OBJ
L:\SELECT-FIX\LMESELECT FIX API KIT\CRYPTO\CRYPTOPP561\WIN32\CRYPTOPP\DEBUG\AUTHENC.OBJ
L:\SELECT-FIX\LMESELECT FIX API KIT\CRYPTO\CRYPTOPP561\WIN32\CRYPTOPP\DEBUG\BASECODE.OBJ
L:\SELECT-FIX\LMESELECT FIX API KIT\CRYPTO\CRYPTOPP561\WIN32\CRYPTOPP\DEBUG\CBCMAC.OBJ
L:\SELECT-FIX\LMESELECT FIX API KIT\CRYPTO\CRYPTOPP561\WIN32\CRYPTOPP\DEBUG\CCM.OBJ
L:\SELECT-FIX\LMESELECT FIX API KIT\CRYPTO\CRYPTOPP561\WIN32\CRYPTOPP\DEBUG\CHANNELS.OBJ
L:\SELECT-FIX\LMESELECT FIX API KIT\CRYPTO\CRYPTOPP561\WIN32\CRYPTOPP\DEBUG\CMAC.OBJ
L:\SELECT-FIX\LMESELECT FIX API KIT\CRYPTO\CRYPTOPP561\WIN32\CRYPTOPP\DEBUG\CPU.OBJ
L:\SELECT-FIX\LMESELECT FIX API KIT\CRYPTO\CRYPTOPP561\WIN32\CRYPTOPP\DEBUG\CRYPTLIB.OBJ
L:\SELECT-FIX\LMESELECT FIX API KIT\CRYPTO\CRYPTOPP561\WIN32\CRYPTOPP\DEBUG\DES.OBJ
L:\SELECT-FIX\LMESELECT FIX API KIT\CRYPTO\CRYPTOPP561\WIN32\CRYPTOPP\DEBUG\DESSP.OBJ
L:\SELECT-FIX\LMESELECT FIX API KIT\CRYPTO\CRYPTOPP561\WIN32\CRYPTOPP\DEBUG\DH.OBJ
L:\SELECT-FIX\LMESELECT FIX API KIT\CRYPTO\CRYPTOPP561\WIN32\CRYPTOPP\DEBUG\DLL.OBJ
L:\SELECT-FIX\LMESELECT FIX API KIT\CRYPTO\CRYPTOPP561\WIN32\CRYPTOPP\DEBUG\DSA.OBJ
L:\SELECT-FIX\LMESELECT FIX API KIT\CRYPTO\CRYPTOPP561\WIN32\CRYPTOPP\DEBUG\EC2N.OBJ
L:\SELECT-FIX\LMESELECT FIX API KIT\CRYPTO\CRYPTOPP561\WIN32\CRYPTOPP\DEBUG\ECCRYPTO.OBJ
L:\SELECT-FIX\LMESELECT FIX API KIT\CRYPTO\CRYPTOPP561\WIN32\CRYPTOPP\DEBUG\ECP.OBJ
L:\SELECT-FIX\LMESELECT FIX API KIT\CRYPTO\CRYPTOPP561\WIN32\CRYPTOPP\DEBUG\EMSA2.OBJ
L:\SELECT-FIX\LMESELECT FIX API KIT\CRYPTO\CRYPTOPP561\WIN32\CRYPTOPP\DEBUG\EPRECOMP.OBJ
L:\SELECT-FIX\LMESELECT FIX API KIT\CRYPTO\CRYPTOPP561\WIN32\CRYPTOPP\DEBUG\FILES.OBJ
L:\SELECT-FIX\LMESELECT FIX API KIT\CRYPTO\CRYPTOPP561\WIN32\CRYPTOPP\DEBUG\FILTERS.OBJ
L:\SELECT-FIX\LMESELECT FIX API KIT\CRYPTO\CRYPTOPP561\WIN32\CRYPTOPP\DEBUG\FIPS140.OBJ
L:\SELECT-FIX\LMESELECT FIX API KIT\CRYPTO\CRYPTOPP561\WIN32\CRYPTOPP\DEBUG\FIPSTEST.OBJ
L:\SELECT-FIX\LMESELECT FIX API KIT\CRYPTO\CRYPTOPP561\WIN32\CRYPTOPP\DEBUG\GCM.OBJ
L:\SELECT-FIX\LMESELECT FIX API KIT\CRYPTO\CRYPTOPP561\WIN32\CRYPTOPP\DEBUG\GF2N.OBJ
L:\SELECT-FIX\LMESELECT FIX API KIT\CRYPTO\CRYPTOPP561\WIN32\CRYPTOPP\DEBUG\GFPCRYPT.OBJ
L:\SELECT-FIX\LMESELECT FIX API KIT\CRYPTO\CRYPTOPP561\WIN32\CRYPTOPP\DEBUG\HEX.OBJ
L:\SELECT-FIX\LMESELECT FIX API KIT\CRYPTO\CRYPTOPP561\WIN32\CRYPTOPP\DEBUG\HMAC.OBJ
L:\SELECT-FIX\LMESELECT FIX API KIT\CRYPTO\CRYPTOPP561\WIN32\CRYPTOPP\DEBUG\HRTIMER.OBJ
L:\SELECT-FIX\LMESELECT FIX API KIT\CRYPTO\CRYPTOPP561\WIN32\CRYPTOPP\DEBUG\INTEGER.OBJ
L:\SELECT-FIX\LMESELECT FIX API KIT\CRYPTO\CRYPTOPP561\WIN32\CRYPTOPP\DEBUG\ITERHASH.OBJ
L:\SELECT-FIX\LMESELECT FIX API KIT\CRYPTO\CRYPTOPP561\WIN32\CRYPTOPP\DEBUG\MISC.OBJ
L:\SELECT-FIX\LMESELECT FIX API KIT\CRYPTO\CRYPTOPP561\WIN32\CRYPTOPP\DEBUG\MODES.OBJ
L:\SELECT-FIX\LMESELECT FIX API KIT\CRYPTO\CRYPTOPP561\WIN32\CRYPTOPP\DEBUG\MQUEUE.OBJ
L:\SELECT-FIX\LMESELECT FIX API KIT\CRYPTO\CRYPTOPP561\WIN32\CRYPTOPP\DEBUG\NBTHEORY.OBJ
L:\SELECT-FIX\LMESELECT FIX API KIT\CRYPTO\CRYPTOPP561\WIN32\CRYPTOPP\DEBUG\OAEP.OBJ
L:\SELECT-FIX\LMESELECT FIX API KIT\CRYPTO\CRYPTOPP561\WIN32\CRYPTOPP\DEBUG\OSRNG.OBJ
L:\SELECT-FIX\LMESELECT FIX API KIT\CRYPTO\CRYPTOPP561\WIN32\CRYPTOPP\DEBUG\PCH.OBJ
L:\SELECT-FIX\LMESELECT FIX API KIT\CRYPTO\CRYPTOPP561\WIN32\CRYPTOPP\DEBUG\PKCSPAD.OBJ
L:\SELECT-FIX\LMESELECT FIX API KIT\CRYPTO\CRYPTOPP561\WIN32\CRYPTOPP\DEBUG\PSSR.OBJ
L:\SELECT-FIX\LMESELECT FIX API KIT\CRYPTO\CRYPTOPP561\WIN32\CRYPTOPP\DEBUG\PUBKEY.OBJ
L:\SELECT-FIX\LMESELECT FIX API KIT\CRYPTO\CRYPTOPP561\WIN32\CRYPTOPP\DEBUG\QUEUE.OBJ
L:\SELECT-FIX\LMESELECT FIX API KIT\CRYPTO\CRYPTOPP561\WIN32\CRYPTOPP\DEBUG\RANDPOOL.OBJ
L:\SELECT-FIX\LMESELECT FIX API KIT\CRYPTO\CRYPTOPP561\WIN32\CRYPTOPP\DEBUG\RDTABLES.OBJ
L:\SELECT-FIX\LMESELECT FIX API KIT\CRYPTO\CRYPTOPP561\WIN32\CRYPTOPP\DEBUG\RIJNDAEL.OBJ
L:\SELECT-FIX\LMESELECT FIX API KIT\CRYPTO\CRYPTOPP561\WIN32\CRYPTOPP\DEBUG\RNG.OBJ
L:\SELECT-FIX\LMESELECT FIX API KIT\CRYPTO\CRYPTOPP561\WIN32\CRYPTOPP\DEBUG\RSA.OBJ
L:\SELECT-FIX\LMESELECT FIX API KIT\CRYPTO\CRYPTOPP561\WIN32\CRYPTOPP\DEBUG\RW.OBJ
L:\SELECT-FIX\LMESELECT FIX API KIT\CRYPTO\CRYPTOPP561\WIN32\CRYPTOPP\DEBUG\SHA.OBJ
L:\SELECT-FIX\LMESELECT FIX API KIT\CRYPTO\CRYPTOPP561\WIN32\CRYPTOPP\DEBUG\SIMPLE.OBJ
L:\SELECT-FIX\LMESELECT FIX API KIT\CRYPTO\CRYPTOPP561\WIN32\CRYPTOPP\DEBUG\SKIPJACK.OBJ
L:\SELECT-FIX\LMESELECT FIX API KIT\CRYPTO\CRYPTOPP561\WIN32\CRYPTOPP\DEBUG\STRCIPHR.OBJ
L:\SELECT-FIX\LMESELECT FIX API KIT\CRYPTO\CRYPTOPP561\WIN32\CRYPTOPP\DEBUG\TRDLOCAL.OBJ
C:\WINDOWS\GLOBALIZATION\SORTING\SORTDEFAULT.NLS
C:\PROGRAM FILES (X86)\MICROSOFT VISUAL STUDIO 11.0\VC\LIB\LIBCPMTD.LIB
C:\PROGRAM FILES (X86)\MICROSOFT VISUAL STUDIO 11.0\VC\LIB\LIBCMTD.LIB
C:\PROGRAM FILES (X86)\MICROSOFT VISUAL STUDIO 11.0\VC\LIB\OLDNAMES.LIB
C:\WINDOWS\SYSTEM32\TZRES.DLL
C:\PROGRAM FILES (X86)\MICROSOFT VISUAL STUDIO 11.0\VC\BIN\1033\LINKUI.DLL
C:\PROGRAM FILES (X86)\WINDOWS KITS\8.0\BIN\X86\RC.EXE
C:\PROGRAM FILES (X86)\MICROSOFT VISUAL STUDIO 11.0\VC\BIN\CVTRES.EXE
C:\WINDOWS\SYSTEM32\RSAENH.DLL
