^C:\LMEFEED\LMEFEED\LMECPPWRAPPER\STDAFX.CPP
C:\LMEFEED\LMEFEED\LMECPPWRAPPER\RELEASE\LMECPPWRAPPER.PCH
C:\LMEFEED\LMEFEED\LMECPPWRAPPER\RELEASE\STDAFX.OBJ
C:\LMEFEED\LMEFEED\LMECPPWRAPPER\RELEASE\VC110.PDB
^C:\LMEFEED\LMEFEED\LMECPPWRAPPER\DLLMAIN.CPP
C:\LMEFEED\LMEFEED\LMECPPWRAPPER\RELEASE\DLLMAIN.OBJ
C:\LMEFEED\LMEFEED\LMECPPWRAPPER\RELEASE\VC110.PDB
