^C:\LMEFEED\LMEFEED\LMECPPWRAPPER\DEBUG\DLLMAIN.OBJ|C:\LMEFEED\LMEFEED\LMECPPWRAPPER\DEBUG\LMECPPWRAPPER.OBJ|C:\LMEFEED\LMEFEED\LMECPPWRAPPER\DEBUG\STDAFX.OBJ|C:\LMEFEED\LMESELECT FIX API KIT\CRYPTO\CRYPTOPP561\WIN32\OUTPUT\DEBUG\CRYPTLIB.LIB
C:\LMEFEED\LMEORDERFEED\DEBUG\LMECPPWRAPPER.ILK
C:\LMEFEED\LMEORDERFEED\DEBUG\LMECPPWRAPPER.DLL
C:\LMEFEED\LMEORDERFEED\DEBUG\LMECPPWRAPPER.PDB
C:\LMEFEED\LMEFEED\DEBUG\LMECPPWRAPPER.ILK
C:\LMEFEED\LMEFEED\DEBUG\LMECPPWRAPPER.DLL
C:\LMEFEED\LMEFEED\DEBUG\LMECPPWRAPPER.PDB
