^C:\LMEFEED\LMESELECT FIX API KIT\CRYPTO\CRYPTOPP561\ADHOC.CPP
/c /Zi /nologo /W3 /WX- /O1 /Ob2 /Oi /Oy /D NDEBUG /D _CONSOLE /D WIN32 /D _VC80_UPGRADE=0x0710 /D _MBCS /GF /Gm- /EHsc /MT /GS /Gy /fp:precise /Zc:wchar_t /Zc:forScope /Fo"WIN32\CRYPTEST\RELEASE\\" /Fd"WIN32\CRYPTEST\RELEASE\VC110.PDB" /Gd /TP /analyze- /Zm400   C:\LMEFEED\LMESELECT FIX API KIT\CRYPTO\CRYPTOPP561\ADHOC.CPP
^C:\LMEFEED\LMESELECT FIX API KIT\CRYPTO\CRYPTOPP561\BENCH.CPP
/c /Zi /nologo /W3 /WX- /O1 /Ob2 /Oi /Oy /D NDEBUG /D _CONSOLE /D WIN32 /D _VC80_UPGRADE=0x0710 /D _MBCS /GF /Gm- /EHsc /MT /GS /Gy /fp:precise /Zc:wchar_t /Zc:forScope /Fo"WIN32\CRYPTEST\RELEASE\\" /Fd"WIN32\CRYPTEST\RELEASE\VC110.PDB" /Gd /TP /analyze- /Zm400   C:\LMEFEED\LMESELECT FIX API KIT\CRYPTO\CRYPTOPP561\BENCH.CPP
^C:\LMEFEED\LMESELECT FIX API KIT\CRYPTO\CRYPTOPP561\DATATEST.CPP
/c /Zi /nologo /W3 /WX- /O1 /Ob2 /Oi /Oy /D NDEBUG /D _CONSOLE /D WIN32 /D _VC80_UPGRADE=0x0710 /D _MBCS /GF /Gm- /EHsc /MT /GS /Gy /fp:precise /Zc:wchar_t /Zc:forScope /Fo"WIN32\CRYPTEST\RELEASE\\" /Fd"WIN32\CRYPTEST\RELEASE\VC110.PDB" /Gd /TP /analyze- /Zm400   C:\LMEFEED\LMESELECT FIX API KIT\CRYPTO\CRYPTOPP561\DATATEST.CPP
^C:\LMEFEED\LMESELECT FIX API KIT\CRYPTO\CRYPTOPP561\DLLTEST.CPP
/c /Zi /nologo /W3 /WX- /O1 /Ob2 /Oi /Oy /D NDEBUG /D _CONSOLE /D WIN32 /D _VC80_UPGRADE=0x0710 /D _MBCS /GF /Gm- /EHsc /MT /GS /Gy /fp:precise /Zc:wchar_t /Zc:forScope /Fo"WIN32\CRYPTEST\RELEASE\\" /Fd"WIN32\CRYPTEST\RELEASE\VC110.PDB" /Gd /TP /analyze- /Zm400   C:\LMEFEED\LMESELECT FIX API KIT\CRYPTO\CRYPTOPP561\DLLTEST.CPP
^C:\LMEFEED\LMESELECT FIX API KIT\CRYPTO\CRYPTOPP561\FIPSALGT.CPP
/c /Zi /nologo /W3 /WX- /O1 /Ob2 /Oi /Oy /D NDEBUG /D _CONSOLE /D WIN32 /D _VC80_UPGRADE=0x0710 /D _MBCS /GF /Gm- /EHsc /MT /GS /Gy /fp:precise /Zc:wchar_t /Zc:forScope /Fo"WIN32\CRYPTEST\RELEASE\\" /Fd"WIN32\CRYPTEST\RELEASE\VC110.PDB" /Gd /TP /analyze- /Zm400   C:\LMEFEED\LMESELECT FIX API KIT\CRYPTO\CRYPTOPP561\FIPSALGT.CPP
^C:\LMEFEED\LMESELECT FIX API KIT\CRYPTO\CRYPTOPP561\REGTEST.CPP
/c /Zi /nologo /W3 /WX- /O1 /Ob2 /Oi /Oy /D NDEBUG /D _CONSOLE /D WIN32 /D _VC80_UPGRADE=0x0710 /D _MBCS /GF /Gm- /EHsc /MT /GS /Gy /fp:precise /Zc:wchar_t /Zc:forScope /Fo"WIN32\CRYPTEST\RELEASE\\" /Fd"WIN32\CRYPTEST\RELEASE\VC110.PDB" /Gd /TP /analyze- /Zm400   C:\LMEFEED\LMESELECT FIX API KIT\CRYPTO\CRYPTOPP561\REGTEST.CPP
^C:\LMEFEED\LMESELECT FIX API KIT\CRYPTO\CRYPTOPP561\TEST.CPP
/c /Zi /nologo /W3 /WX- /O1 /Ob2 /Oi /Oy /D NDEBUG /D _CONSOLE /D WIN32 /D _VC80_UPGRADE=0x0710 /D _MBCS /GF /Gm- /EHsc /MT /GS /Gy /fp:precise /Zc:wchar_t /Zc:forScope /Fo"WIN32\CRYPTEST\RELEASE\\" /Fd"WIN32\CRYPTEST\RELEASE\VC110.PDB" /Gd /TP /analyze- /Zm400   C:\LMEFEED\LMESELECT FIX API KIT\CRYPTO\CRYPTOPP561\TEST.CPP
^C:\LMEFEED\LMESELECT FIX API KIT\CRYPTO\CRYPTOPP561\VALIDAT1.CPP
/c /Zi /nologo /W3 /WX- /O1 /Ob2 /Oi /Oy /D NDEBUG /D _CONSOLE /D WIN32 /D _VC80_UPGRADE=0x0710 /D _MBCS /GF /Gm- /EHsc /MT /GS /Gy /fp:precise /Zc:wchar_t /Zc:forScope /Fo"WIN32\CRYPTEST\RELEASE\\" /Fd"WIN32\CRYPTEST\RELEASE\VC110.PDB" /Gd /TP /analyze- /Zm400   C:\LMEFEED\LMESELECT FIX API KIT\CRYPTO\CRYPTOPP561\VALIDAT1.CPP
^C:\LMEFEED\LMESELECT FIX API KIT\CRYPTO\CRYPTOPP561\VALIDAT2.CPP
/c /Zi /nologo /W3 /WX- /O1 /Ob2 /Oi /Oy /D NDEBUG /D _CONSOLE /D WIN32 /D _VC80_UPGRADE=0x0710 /D _MBCS /GF /Gm- /EHsc /MT /GS /Gy /fp:precise /Zc:wchar_t /Zc:forScope /Fo"WIN32\CRYPTEST\RELEASE\\" /Fd"WIN32\CRYPTEST\RELEASE\VC110.PDB" /Gd /TP /analyze- /Zm400   C:\LMEFEED\LMESELECT FIX API KIT\CRYPTO\CRYPTOPP561\VALIDAT2.CPP
^C:\LMEFEED\LMESELECT FIX API KIT\CRYPTO\CRYPTOPP561\VALIDAT3.CPP
/c /Zi /nologo /W3 /WX- /O1 /Ob2 /Oi /Oy /D NDEBUG /D _CONSOLE /D WIN32 /D _VC80_UPGRADE=0x0710 /D _MBCS /GF /Gm- /EHsc /MT /GS /Gy /fp:precise /Zc:wchar_t /Zc:forScope /Fo"WIN32\CRYPTEST\RELEASE\\" /Fd"WIN32\CRYPTEST\RELEASE\VC110.PDB" /Gd /TP /analyze- /Zm400   C:\LMEFEED\LMESELECT FIX API KIT\CRYPTO\CRYPTOPP561\VALIDAT3.CPP
^C:\LMEFEED\LMESELECT FIX API KIT\CRYPTO\CRYPTOPP561\BENCH2.CPP
/c /Zi /nologo /W3 /WX- /O2 /Ob2 /Oi /Oy /D NDEBUG /D _CONSOLE /D WIN32 /D _VC80_UPGRADE=0x0710 /D _MBCS /GF /Gm- /EHsc /MT /GS /Gy /fp:precise /Zc:wchar_t /Zc:forScope /Fo"WIN32\CRYPTEST\RELEASE\\" /Fd"WIN32\CRYPTEST\RELEASE\VC110.PDB" /Gd /TP /analyze- /Zm400   C:\LMEFEED\LMESELECT FIX API KIT\CRYPTO\CRYPTOPP561\BENCH2.CPP
