^L:\SELECT-FIX\LMESELECT FIX API KIT\CRYPTO\CRYPTOPP561\ADHOC.CPP
/c /ZI /nologo /W3 /WX- /Od /Oi /Oy- /D _DEBUG /D _CONSOLE /D WIN32 /D _VC80_UPGRADE=0x0710 /D _MBCS /Gm- /EHsc /MTd /GS /arch:SSE /fp:precise /Zc:wchar_t /Zc:forScope /Fo"WIN32\CRYPTEST\DEBUG\\" /Fd"WIN32\CRYPTEST\DEBUG\VC110.PDB" /Gd /TP /analyze- /Zm400   L:\SELECT-FIX\LMESELECT FIX API KIT\CRYPTO\CRYPTOPP561\ADHOC.CPP
^L:\SELECT-FIX\LMESELECT FIX API KIT\CRYPTO\CRYPTOPP561\BENCH.CPP
/c /ZI /nologo /W3 /WX- /Od /Oi /Oy- /D _DEBUG /D _CONSOLE /D WIN32 /D _VC80_UPGRADE=0x0710 /D _MBCS /Gm- /EHsc /MTd /GS /arch:SSE /fp:precise /Zc:wchar_t /Zc:forScope /Fo"WIN32\CRYPTEST\DEBUG\\" /Fd"WIN32\CRYPTEST\DEBUG\VC110.PDB" /Gd /TP /analyze- /Zm400   L:\SELECT-FIX\LMESELECT FIX API KIT\CRYPTO\CRYPTOPP561\BENCH.CPP
^L:\SELECT-FIX\LMESELECT FIX API KIT\CRYPTO\CRYPTOPP561\BENCH2.CPP
/c /ZI /nologo /W3 /WX- /Od /Oi /Oy- /D _DEBUG /D _CONSOLE /D WIN32 /D _VC80_UPGRADE=0x0710 /D _MBCS /Gm- /EHsc /MTd /GS /arch:SSE /fp:precise /Zc:wchar_t /Zc:forScope /Fo"WIN32\CRYPTEST\DEBUG\\" /Fd"WIN32\CRYPTEST\DEBUG\VC110.PDB" /Gd /TP /analyze- /Zm400   L:\SELECT-FIX\LMESELECT FIX API KIT\CRYPTO\CRYPTOPP561\BENCH2.CPP
^L:\SELECT-FIX\LMESELECT FIX API KIT\CRYPTO\CRYPTOPP561\DATATEST.CPP
/c /ZI /nologo /W3 /WX- /Od /Oi /Oy- /D _DEBUG /D _CONSOLE /D WIN32 /D _VC80_UPGRADE=0x0710 /D _MBCS /Gm- /EHsc /MTd /GS /arch:SSE /fp:precise /Zc:wchar_t /Zc:forScope /Fo"WIN32\CRYPTEST\DEBUG\\" /Fd"WIN32\CRYPTEST\DEBUG\VC110.PDB" /Gd /TP /analyze- /Zm400   L:\SELECT-FIX\LMESELECT FIX API KIT\CRYPTO\CRYPTOPP561\DATATEST.CPP
^L:\SELECT-FIX\LMESELECT FIX API KIT\CRYPTO\CRYPTOPP561\DLLTEST.CPP
/c /ZI /nologo /W3 /WX- /Od /Oi /Oy- /D _DEBUG /D _CONSOLE /D WIN32 /D _VC80_UPGRADE=0x0710 /D _MBCS /Gm- /EHsc /MTd /GS /arch:SSE /fp:precise /Zc:wchar_t /Zc:forScope /Fo"WIN32\CRYPTEST\DEBUG\\" /Fd"WIN32\CRYPTEST\DEBUG\VC110.PDB" /Gd /TP /analyze- /Zm400   L:\SELECT-FIX\LMESELECT FIX API KIT\CRYPTO\CRYPTOPP561\DLLTEST.CPP
^L:\SELECT-FIX\LMESELECT FIX API KIT\CRYPTO\CRYPTOPP561\FIPSALGT.CPP
/c /ZI /nologo /W3 /WX- /Od /Oi /Oy- /D _DEBUG /D _CONSOLE /D WIN32 /D _VC80_UPGRADE=0x0710 /D _MBCS /Gm- /EHsc /MTd /GS /arch:SSE /fp:precise /Zc:wchar_t /Zc:forScope /Fo"WIN32\CRYPTEST\DEBUG\\" /Fd"WIN32\CRYPTEST\DEBUG\VC110.PDB" /Gd /TP /analyze- /Zm400   L:\SELECT-FIX\LMESELECT FIX API KIT\CRYPTO\CRYPTOPP561\FIPSALGT.CPP
^L:\SELECT-FIX\LMESELECT FIX API KIT\CRYPTO\CRYPTOPP561\REGTEST.CPP
/c /ZI /nologo /W3 /WX- /Od /Oi /Oy- /D _DEBUG /D _CONSOLE /D WIN32 /D _VC80_UPGRADE=0x0710 /D _MBCS /Gm- /EHsc /MTd /GS /arch:SSE /fp:precise /Zc:wchar_t /Zc:forScope /Fo"WIN32\CRYPTEST\DEBUG\\" /Fd"WIN32\CRYPTEST\DEBUG\VC110.PDB" /Gd /TP /analyze- /Zm400   L:\SELECT-FIX\LMESELECT FIX API KIT\CRYPTO\CRYPTOPP561\REGTEST.CPP
^L:\SELECT-FIX\LMESELECT FIX API KIT\CRYPTO\CRYPTOPP561\TEST.CPP
/c /ZI /nologo /W3 /WX- /Od /Oi /Oy- /D _DEBUG /D _CONSOLE /D WIN32 /D _VC80_UPGRADE=0x0710 /D _MBCS /Gm- /EHsc /MTd /GS /arch:SSE /fp:precise /Zc:wchar_t /Zc:forScope /Fo"WIN32\CRYPTEST\DEBUG\\" /Fd"WIN32\CRYPTEST\DEBUG\VC110.PDB" /Gd /TP /analyze- /Zm400   L:\SELECT-FIX\LMESELECT FIX API KIT\CRYPTO\CRYPTOPP561\TEST.CPP
^L:\SELECT-FIX\LMESELECT FIX API KIT\CRYPTO\CRYPTOPP561\VALIDAT1.CPP
/c /ZI /nologo /W3 /WX- /Od /Oi /Oy- /D _DEBUG /D _CONSOLE /D WIN32 /D _VC80_UPGRADE=0x0710 /D _MBCS /Gm- /EHsc /MTd /GS /arch:SSE /fp:precise /Zc:wchar_t /Zc:forScope /Fo"WIN32\CRYPTEST\DEBUG\\" /Fd"WIN32\CRYPTEST\DEBUG\VC110.PDB" /Gd /TP /analyze- /Zm400   L:\SELECT-FIX\LMESELECT FIX API KIT\CRYPTO\CRYPTOPP561\VALIDAT1.CPP
^L:\SELECT-FIX\LMESELECT FIX API KIT\CRYPTO\CRYPTOPP561\VALIDAT2.CPP
/c /ZI /nologo /W3 /WX- /Od /Oi /Oy- /D _DEBUG /D _CONSOLE /D WIN32 /D _VC80_UPGRADE=0x0710 /D _MBCS /Gm- /EHsc /MTd /GS /arch:SSE /fp:precise /Zc:wchar_t /Zc:forScope /Fo"WIN32\CRYPTEST\DEBUG\\" /Fd"WIN32\CRYPTEST\DEBUG\VC110.PDB" /Gd /TP /analyze- /Zm400   L:\SELECT-FIX\LMESELECT FIX API KIT\CRYPTO\CRYPTOPP561\VALIDAT2.CPP
^L:\SELECT-FIX\LMESELECT FIX API KIT\CRYPTO\CRYPTOPP561\VALIDAT3.CPP
/c /ZI /nologo /W3 /WX- /Od /Oi /Oy- /D _DEBUG /D _CONSOLE /D WIN32 /D _VC80_UPGRADE=0x0710 /D _MBCS /Gm- /EHsc /MTd /GS /arch:SSE /fp:precise /Zc:wchar_t /Zc:forScope /Fo"WIN32\CRYPTEST\DEBUG\\" /Fd"WIN32\CRYPTEST\DEBUG\VC110.PDB" /Gd /TP /analyze- /Zm400   L:\SELECT-FIX\LMESELECT FIX API KIT\CRYPTO\CRYPTOPP561\VALIDAT3.CPP
