^C:\LMEFEED\LMESELECT FIX API KIT\CRYPTO\CRYPTOPP561\PCH.CPP
C:\LMEFEED\LMESELECT FIX API KIT\CRYPTO\CRYPTOPP561\WIN32\CRYPTOPP\RELEASE\CRYPTOPP.PCH
C:\LMEFEED\LMESELECT FIX API KIT\CRYPTO\CRYPTOPP561\WIN32\CRYPTOPP\RELEASE\PCH.OBJ
C:\LMEFEED\LMESELECT FIX API KIT\CRYPTO\CRYPTOPP561\WIN32\DLL_OUTPUT\RELEASE\VC80.PDB
^C:\LMEFEED\LMESELECT FIX API KIT\CRYPTO\CRYPTOPP561\ALGEBRA.CPP|C:\LMEFEED\LMESELECT FIX API KIT\CRYPTO\CRYPTOPP561\ALGPARAM.CPP|C:\LMEFEED\LMESELECT FIX API KIT\CRYPTO\CRYPTOPP561\ASN.CPP|C:\LMEFEED\LMESELECT FIX API KIT\CRYPTO\CRYPTOPP561\BASECODE.CPP|C:\LMEFEED\LMESELECT FIX API KIT\CRYPTO\CRYPTOPP561\CBCMAC.CPP|C:\LMEFEED\LMESELECT FIX API KIT\CRYPTO\CRYPTOPP561\CHANNELS.CPP|C:\LMEFEED\LMESELECT FIX API KIT\CRYPTO\CRYPTOPP561\CRYPTLIB.CPP|C:\LMEFEED\LMESELECT FIX API KIT\CRYPTO\CRYPTOPP561\DES.CPP|C:\LMEFEED\LMESELECT FIX API KIT\CRYPTO\CRYPTOPP561\DESSP.CPP|C:\LMEFEED\LMESELECT FIX API KIT\CRYPTO\CRYPTOPP561\DH.CPP|C:\LMEFEED\LMESELECT FIX API KIT\CRYPTO\CRYPTOPP561\DSA.CPP|C:\LMEFEED\LMESELECT FIX API KIT\CRYPTO\CRYPTOPP561\EC2N.CPP|C:\LMEFEED\LMESELECT FIX API KIT\CRYPTO\CRYPTOPP561\ECCRYPTO.CPP|C:\LMEFEED\LMESELECT FIX API KIT\CRYPTO\CRYPTOPP561\ECP.CPP|C:\LMEFEED\LMESELECT FIX API KIT\CRYPTO\CRYPTOPP561\EPRECOMP.CPP|C:\LMEFEED\LMESELECT FIX API KIT\CRYPTO\CRYPTOPP561\FILES.CPP|C:\LMEFEED\LMESELECT FIX API KIT\CRYPTO\CRYPTOPP561\FILTERS.CPP|C:\LMEFEED\LMESELECT FIX API KIT\CRYPTO\CRYPTOPP561\FIPS140.CPP|C:\LMEFEED\LMESELECT FIX API KIT\CRYPTO\CRYPTOPP561\FIPSTEST.CPP|C:\LMEFEED\LMESELECT FIX API KIT\CRYPTO\CRYPTOPP561\GF2N.CPP|C:\LMEFEED\LMESELECT FIX API KIT\CRYPTO\CRYPTOPP561\GFPCRYPT.CPP|C:\LMEFEED\LMESELECT FIX API KIT\CRYPTO\CRYPTOPP561\HEX.CPP|C:\LMEFEED\LMESELECT FIX API KIT\CRYPTO\CRYPTOPP561\HMAC.CPP|C:\LMEFEED\LMESELECT FIX API KIT\CRYPTO\CRYPTOPP561\INTEGER.CPP|C:\LMEFEED\LMESELECT FIX API KIT\CRYPTO\CRYPTOPP561\MISC.CPP|C:\LMEFEED\LMESELECT FIX API KIT\CRYPTO\CRYPTOPP561\MODES.CPP|C:\LMEFEED\LMESELECT FIX API KIT\CRYPTO\CRYPTOPP561\MQUEUE.CPP|C:\LMEFEED\LMESELECT FIX API KIT\CRYPTO\CRYPTOPP561\NBTHEORY.CPP|C:\LMEFEED\LMESELECT FIX API KIT\CRYPTO\CRYPTOPP561\OAEP.CPP|C:\LMEFEED\LMESELECT FIX API KIT\CRYPTO\CRYPTOPP561\OSRNG.CPP|C:\LMEFEED\LMESELECT FIX API KIT\CRYPTO\CRYPTOPP561\PKCSPAD.CPP|C:\LMEFEED\LMESELECT FIX API KIT\CRYPTO\CRYPTOPP561\PUBKEY.CPP|C:\LMEFEED\LMESELECT FIX API KIT\CRYPTO\CRYPTOPP561\QUEUE.CPP|C:\LMEFEED\LMESELECT FIX API KIT\CRYPTO\CRYPTOPP561\RANDPOOL.CPP|C:\LMEFEED\LMESELECT FIX API KIT\CRYPTO\CRYPTOPP561\RDTABLES.CPP|C:\LMEFEED\LMESELECT FIX API KIT\CRYPTO\CRYPTOPP561\RIJNDAEL.CPP|C:\LMEFEED\LMESELECT FIX API KIT\CRYPTO\CRYPTOPP561\RNG.CPP|C:\LMEFEED\LMESELECT FIX API KIT\CRYPTO\CRYPTOPP561\RSA.CPP|C:\LMEFEED\LMESELECT FIX API KIT\CRYPTO\CRYPTOPP561\SHA.CPP|C:\LMEFEED\LMESELECT FIX API KIT\CRYPTO\CRYPTOPP561\SIMPLE.CPP|C:\LMEFEED\LMESELECT FIX API KIT\CRYPTO\CRYPTOPP561\SKIPJACK.CPP|C:\LMEFEED\LMESELECT FIX API KIT\CRYPTO\CRYPTOPP561\STRCIPHR.CPP|C:\LMEFEED\LMESELECT FIX API KIT\CRYPTO\CRYPTOPP561\TRDLOCAL.CPP
C:\LMEFEED\LMESELECT FIX API KIT\CRYPTO\CRYPTOPP561\WIN32\CRYPTOPP\RELEASE\GF2N.OBJ
C:\LMEFEED\LMESELECT FIX API KIT\CRYPTO\CRYPTOPP561\WIN32\CRYPTOPP\RELEASE\FIPSTEST.OBJ
C:\LMEFEED\LMESELECT FIX API KIT\CRYPTO\CRYPTOPP561\WIN32\CRYPTOPP\RELEASE\FIPS140.OBJ
C:\LMEFEED\LMESELECT FIX API KIT\CRYPTO\CRYPTOPP561\WIN32\CRYPTOPP\RELEASE\FILTERS.OBJ
C:\LMEFEED\LMESELECT FIX API KIT\CRYPTO\CRYPTOPP561\WIN32\CRYPTOPP\RELEASE\FILES.OBJ
C:\LMEFEED\LMESELECT FIX API KIT\CRYPTO\CRYPTOPP561\WIN32\CRYPTOPP\RELEASE\EPRECOMP.OBJ
C:\LMEFEED\LMESELECT FIX API KIT\CRYPTO\CRYPTOPP561\WIN32\CRYPTOPP\RELEASE\ECP.OBJ
C:\LMEFEED\LMESELECT FIX API KIT\CRYPTO\CRYPTOPP561\WIN32\CRYPTOPP\RELEASE\ECCRYPTO.OBJ
C:\LMEFEED\LMESELECT FIX API KIT\CRYPTO\CRYPTOPP561\WIN32\CRYPTOPP\RELEASE\EC2N.OBJ
C:\LMEFEED\LMESELECT FIX API KIT\CRYPTO\CRYPTOPP561\WIN32\CRYPTOPP\RELEASE\DSA.OBJ
C:\LMEFEED\LMESELECT FIX API KIT\CRYPTO\CRYPTOPP561\WIN32\CRYPTOPP\RELEASE\DH.OBJ
C:\LMEFEED\LMESELECT FIX API KIT\CRYPTO\CRYPTOPP561\WIN32\CRYPTOPP\RELEASE\DESSP.OBJ
C:\LMEFEED\LMESELECT FIX API KIT\CRYPTO\CRYPTOPP561\WIN32\CRYPTOPP\RELEASE\DES.OBJ
C:\LMEFEED\LMESELECT FIX API KIT\CRYPTO\CRYPTOPP561\WIN32\CRYPTOPP\RELEASE\CRYPTLIB.OBJ
C:\LMEFEED\LMESELECT FIX API KIT\CRYPTO\CRYPTOPP561\WIN32\CRYPTOPP\RELEASE\CHANNELS.OBJ
C:\LMEFEED\LMESELECT FIX API KIT\CRYPTO\CRYPTOPP561\WIN32\CRYPTOPP\RELEASE\CBCMAC.OBJ
C:\LMEFEED\LMESELECT FIX API KIT\CRYPTO\CRYPTOPP561\WIN32\CRYPTOPP\RELEASE\BASECODE.OBJ
C:\LMEFEED\LMESELECT FIX API KIT\CRYPTO\CRYPTOPP561\WIN32\CRYPTOPP\RELEASE\ASN.OBJ
C:\LMEFEED\LMESELECT FIX API KIT\CRYPTO\CRYPTOPP561\WIN32\CRYPTOPP\RELEASE\ALGPARAM.OBJ
C:\LMEFEED\LMESELECT FIX API KIT\CRYPTO\CRYPTOPP561\WIN32\CRYPTOPP\RELEASE\ALGEBRA.OBJ
C:\LMEFEED\LMESELECT FIX API KIT\CRYPTO\CRYPTOPP561\WIN32\CRYPTOPP\RELEASE\SIMPLE.OBJ
C:\LMEFEED\LMESELECT FIX API KIT\CRYPTO\CRYPTOPP561\WIN32\CRYPTOPP\RELEASE\SHA.OBJ
C:\LMEFEED\LMESELECT FIX API KIT\CRYPTO\CRYPTOPP561\WIN32\CRYPTOPP\RELEASE\RSA.OBJ
C:\LMEFEED\LMESELECT FIX API KIT\CRYPTO\CRYPTOPP561\WIN32\CRYPTOPP\RELEASE\RNG.OBJ
C:\LMEFEED\LMESELECT FIX API KIT\CRYPTO\CRYPTOPP561\WIN32\CRYPTOPP\RELEASE\RIJNDAEL.OBJ
C:\LMEFEED\LMESELECT FIX API KIT\CRYPTO\CRYPTOPP561\WIN32\CRYPTOPP\RELEASE\RDTABLES.OBJ
C:\LMEFEED\LMESELECT FIX API KIT\CRYPTO\CRYPTOPP561\WIN32\CRYPTOPP\RELEASE\RANDPOOL.OBJ
C:\LMEFEED\LMESELECT FIX API KIT\CRYPTO\CRYPTOPP561\WIN32\CRYPTOPP\RELEASE\QUEUE.OBJ
C:\LMEFEED\LMESELECT FIX API KIT\CRYPTO\CRYPTOPP561\WIN32\CRYPTOPP\RELEASE\PUBKEY.OBJ
C:\LMEFEED\LMESELECT FIX API KIT\CRYPTO\CRYPTOPP561\WIN32\CRYPTOPP\RELEASE\PKCSPAD.OBJ
C:\LMEFEED\LMESELECT FIX API KIT\CRYPTO\CRYPTOPP561\WIN32\CRYPTOPP\RELEASE\OSRNG.OBJ
C:\LMEFEED\LMESELECT FIX API KIT\CRYPTO\CRYPTOPP561\WIN32\CRYPTOPP\RELEASE\OAEP.OBJ
C:\LMEFEED\LMESELECT FIX API KIT\CRYPTO\CRYPTOPP561\WIN32\CRYPTOPP\RELEASE\NBTHEORY.OBJ
C:\LMEFEED\LMESELECT FIX API KIT\CRYPTO\CRYPTOPP561\WIN32\CRYPTOPP\RELEASE\MQUEUE.OBJ
C:\LMEFEED\LMESELECT FIX API KIT\CRYPTO\CRYPTOPP561\WIN32\CRYPTOPP\RELEASE\MODES.OBJ
C:\LMEFEED\LMESELECT FIX API KIT\CRYPTO\CRYPTOPP561\WIN32\CRYPTOPP\RELEASE\MISC.OBJ
C:\LMEFEED\LMESELECT FIX API KIT\CRYPTO\CRYPTOPP561\WIN32\CRYPTOPP\RELEASE\INTEGER.OBJ
C:\LMEFEED\LMESELECT FIX API KIT\CRYPTO\CRYPTOPP561\WIN32\CRYPTOPP\RELEASE\HMAC.OBJ
C:\LMEFEED\LMESELECT FIX API KIT\CRYPTO\CRYPTOPP561\WIN32\CRYPTOPP\RELEASE\HEX.OBJ
C:\LMEFEED\LMESELECT FIX API KIT\CRYPTO\CRYPTOPP561\WIN32\CRYPTOPP\RELEASE\GFPCRYPT.OBJ
C:\LMEFEED\LMESELECT FIX API KIT\CRYPTO\CRYPTOPP561\WIN32\CRYPTOPP\RELEASE\TRDLOCAL.OBJ
C:\LMEFEED\LMESELECT FIX API KIT\CRYPTO\CRYPTOPP561\WIN32\CRYPTOPP\RELEASE\STRCIPHR.OBJ
C:\LMEFEED\LMESELECT FIX API KIT\CRYPTO\CRYPTOPP561\WIN32\CRYPTOPP\RELEASE\SKIPJACK.OBJ
^C:\LMEFEED\LMESELECT FIX API KIT\CRYPTO\CRYPTOPP561\ALGEBRA.CPP
C:\LMEFEED\LMESELECT FIX API KIT\CRYPTO\CRYPTOPP561\WIN32\DLL_OUTPUT\RELEASE\VC80.PDB
^C:\LMEFEED\LMESELECT FIX API KIT\CRYPTO\CRYPTOPP561\ALGPARAM.CPP
C:\LMEFEED\LMESELECT FIX API KIT\CRYPTO\CRYPTOPP561\WIN32\DLL_OUTPUT\RELEASE\VC80.PDB
^C:\LMEFEED\LMESELECT FIX API KIT\CRYPTO\CRYPTOPP561\ASN.CPP
C:\LMEFEED\LMESELECT FIX API KIT\CRYPTO\CRYPTOPP561\WIN32\DLL_OUTPUT\RELEASE\VC80.PDB
^C:\LMEFEED\LMESELECT FIX API KIT\CRYPTO\CRYPTOPP561\BASECODE.CPP
C:\LMEFEED\LMESELECT FIX API KIT\CRYPTO\CRYPTOPP561\WIN32\DLL_OUTPUT\RELEASE\VC80.PDB
^C:\LMEFEED\LMESELECT FIX API KIT\CRYPTO\CRYPTOPP561\CBCMAC.CPP
C:\LMEFEED\LMESELECT FIX API KIT\CRYPTO\CRYPTOPP561\WIN32\DLL_OUTPUT\RELEASE\VC80.PDB
^C:\LMEFEED\LMESELECT FIX API KIT\CRYPTO\CRYPTOPP561\CHANNELS.CPP
C:\LMEFEED\LMESELECT FIX API KIT\CRYPTO\CRYPTOPP561\WIN32\DLL_OUTPUT\RELEASE\VC80.PDB
^C:\LMEFEED\LMESELECT FIX API KIT\CRYPTO\CRYPTOPP561\CRYPTLIB.CPP
C:\LMEFEED\LMESELECT FIX API KIT\CRYPTO\CRYPTOPP561\WIN32\DLL_OUTPUT\RELEASE\VC80.PDB
^C:\LMEFEED\LMESELECT FIX API KIT\CRYPTO\CRYPTOPP561\DES.CPP
C:\LMEFEED\LMESELECT FIX API KIT\CRYPTO\CRYPTOPP561\WIN32\DLL_OUTPUT\RELEASE\VC80.PDB
^C:\LMEFEED\LMESELECT FIX API KIT\CRYPTO\CRYPTOPP561\DESSP.CPP
C:\LMEFEED\LMESELECT FIX API KIT\CRYPTO\CRYPTOPP561\WIN32\DLL_OUTPUT\RELEASE\VC80.PDB
^C:\LMEFEED\LMESELECT FIX API KIT\CRYPTO\CRYPTOPP561\DH.CPP
C:\LMEFEED\LMESELECT FIX API KIT\CRYPTO\CRYPTOPP561\WIN32\DLL_OUTPUT\RELEASE\VC80.PDB
^C:\LMEFEED\LMESELECT FIX API KIT\CRYPTO\CRYPTOPP561\DSA.CPP
C:\LMEFEED\LMESELECT FIX API KIT\CRYPTO\CRYPTOPP561\WIN32\DLL_OUTPUT\RELEASE\VC80.PDB
^C:\LMEFEED\LMESELECT FIX API KIT\CRYPTO\CRYPTOPP561\EC2N.CPP
C:\LMEFEED\LMESELECT FIX API KIT\CRYPTO\CRYPTOPP561\WIN32\DLL_OUTPUT\RELEASE\VC80.PDB
^C:\LMEFEED\LMESELECT FIX API KIT\CRYPTO\CRYPTOPP561\ECCRYPTO.CPP
C:\LMEFEED\LMESELECT FIX API KIT\CRYPTO\CRYPTOPP561\WIN32\DLL_OUTPUT\RELEASE\VC80.PDB
^C:\LMEFEED\LMESELECT FIX API KIT\CRYPTO\CRYPTOPP561\ECP.CPP
C:\LMEFEED\LMESELECT FIX API KIT\CRYPTO\CRYPTOPP561\WIN32\DLL_OUTPUT\RELEASE\VC80.PDB
^C:\LMEFEED\LMESELECT FIX API KIT\CRYPTO\CRYPTOPP561\EPRECOMP.CPP
C:\LMEFEED\LMESELECT FIX API KIT\CRYPTO\CRYPTOPP561\WIN32\DLL_OUTPUT\RELEASE\VC80.PDB
^C:\LMEFEED\LMESELECT FIX API KIT\CRYPTO\CRYPTOPP561\FILES.CPP
C:\LMEFEED\LMESELECT FIX API KIT\CRYPTO\CRYPTOPP561\WIN32\DLL_OUTPUT\RELEASE\VC80.PDB
^C:\LMEFEED\LMESELECT FIX API KIT\CRYPTO\CRYPTOPP561\FILTERS.CPP
C:\LMEFEED\LMESELECT FIX API KIT\CRYPTO\CRYPTOPP561\WIN32\DLL_OUTPUT\RELEASE\VC80.PDB
^C:\LMEFEED\LMESELECT FIX API KIT\CRYPTO\CRYPTOPP561\FIPS140.CPP
C:\LMEFEED\LMESELECT FIX API KIT\CRYPTO\CRYPTOPP561\WIN32\DLL_OUTPUT\RELEASE\VC80.PDB
^C:\LMEFEED\LMESELECT FIX API KIT\CRYPTO\CRYPTOPP561\FIPSTEST.CPP
C:\LMEFEED\LMESELECT FIX API KIT\CRYPTO\CRYPTOPP561\WIN32\DLL_OUTPUT\RELEASE\VC80.PDB
^C:\LMEFEED\LMESELECT FIX API KIT\CRYPTO\CRYPTOPP561\GF2N.CPP
C:\LMEFEED\LMESELECT FIX API KIT\CRYPTO\CRYPTOPP561\WIN32\DLL_OUTPUT\RELEASE\VC80.PDB
^C:\LMEFEED\LMESELECT FIX API KIT\CRYPTO\CRYPTOPP561\GFPCRYPT.CPP
C:\LMEFEED\LMESELECT FIX API KIT\CRYPTO\CRYPTOPP561\WIN32\DLL_OUTPUT\RELEASE\VC80.PDB
^C:\LMEFEED\LMESELECT FIX API KIT\CRYPTO\CRYPTOPP561\HEX.CPP
C:\LMEFEED\LMESELECT FIX API KIT\CRYPTO\CRYPTOPP561\WIN32\DLL_OUTPUT\RELEASE\VC80.PDB
^C:\LMEFEED\LMESELECT FIX API KIT\CRYPTO\CRYPTOPP561\HMAC.CPP
C:\LMEFEED\LMESELECT FIX API KIT\CRYPTO\CRYPTOPP561\WIN32\DLL_OUTPUT\RELEASE\VC80.PDB
^C:\LMEFEED\LMESELECT FIX API KIT\CRYPTO\CRYPTOPP561\INTEGER.CPP
C:\LMEFEED\LMESELECT FIX API KIT\CRYPTO\CRYPTOPP561\WIN32\DLL_OUTPUT\RELEASE\VC80.PDB
^C:\LMEFEED\LMESELECT FIX API KIT\CRYPTO\CRYPTOPP561\MISC.CPP
C:\LMEFEED\LMESELECT FIX API KIT\CRYPTO\CRYPTOPP561\WIN32\DLL_OUTPUT\RELEASE\VC80.PDB
^C:\LMEFEED\LMESELECT FIX API KIT\CRYPTO\CRYPTOPP561\MODES.CPP
C:\LMEFEED\LMESELECT FIX API KIT\CRYPTO\CRYPTOPP561\WIN32\DLL_OUTPUT\RELEASE\VC80.PDB
^C:\LMEFEED\LMESELECT FIX API KIT\CRYPTO\CRYPTOPP561\MQUEUE.CPP
C:\LMEFEED\LMESELECT FIX API KIT\CRYPTO\CRYPTOPP561\WIN32\DLL_OUTPUT\RELEASE\VC80.PDB
^C:\LMEFEED\LMESELECT FIX API KIT\CRYPTO\CRYPTOPP561\NBTHEORY.CPP
C:\LMEFEED\LMESELECT FIX API KIT\CRYPTO\CRYPTOPP561\WIN32\DLL_OUTPUT\RELEASE\VC80.PDB
^C:\LMEFEED\LMESELECT FIX API KIT\CRYPTO\CRYPTOPP561\OAEP.CPP
C:\LMEFEED\LMESELECT FIX API KIT\CRYPTO\CRYPTOPP561\WIN32\DLL_OUTPUT\RELEASE\VC80.PDB
^C:\LMEFEED\LMESELECT FIX API KIT\CRYPTO\CRYPTOPP561\OSRNG.CPP
C:\LMEFEED\LMESELECT FIX API KIT\CRYPTO\CRYPTOPP561\WIN32\DLL_OUTPUT\RELEASE\VC80.PDB
^C:\LMEFEED\LMESELECT FIX API KIT\CRYPTO\CRYPTOPP561\PKCSPAD.CPP
C:\LMEFEED\LMESELECT FIX API KIT\CRYPTO\CRYPTOPP561\WIN32\DLL_OUTPUT\RELEASE\VC80.PDB
^C:\LMEFEED\LMESELECT FIX API KIT\CRYPTO\CRYPTOPP561\PUBKEY.CPP
C:\LMEFEED\LMESELECT FIX API KIT\CRYPTO\CRYPTOPP561\WIN32\DLL_OUTPUT\RELEASE\VC80.PDB
^C:\LMEFEED\LMESELECT FIX API KIT\CRYPTO\CRYPTOPP561\QUEUE.CPP
C:\LMEFEED\LMESELECT FIX API KIT\CRYPTO\CRYPTOPP561\WIN32\DLL_OUTPUT\RELEASE\VC80.PDB
^C:\LMEFEED\LMESELECT FIX API KIT\CRYPTO\CRYPTOPP561\RANDPOOL.CPP
C:\LMEFEED\LMESELECT FIX API KIT\CRYPTO\CRYPTOPP561\WIN32\DLL_OUTPUT\RELEASE\VC80.PDB
^C:\LMEFEED\LMESELECT FIX API KIT\CRYPTO\CRYPTOPP561\RDTABLES.CPP
C:\LMEFEED\LMESELECT FIX API KIT\CRYPTO\CRYPTOPP561\WIN32\DLL_OUTPUT\RELEASE\VC80.PDB
^C:\LMEFEED\LMESELECT FIX API KIT\CRYPTO\CRYPTOPP561\RIJNDAEL.CPP
C:\LMEFEED\LMESELECT FIX API KIT\CRYPTO\CRYPTOPP561\WIN32\DLL_OUTPUT\RELEASE\VC80.PDB
^C:\LMEFEED\LMESELECT FIX API KIT\CRYPTO\CRYPTOPP561\RNG.CPP
C:\LMEFEED\LMESELECT FIX API KIT\CRYPTO\CRYPTOPP561\WIN32\DLL_OUTPUT\RELEASE\VC80.PDB
^C:\LMEFEED\LMESELECT FIX API KIT\CRYPTO\CRYPTOPP561\RSA.CPP
C:\LMEFEED\LMESELECT FIX API KIT\CRYPTO\CRYPTOPP561\WIN32\DLL_OUTPUT\RELEASE\VC80.PDB
^C:\LMEFEED\LMESELECT FIX API KIT\CRYPTO\CRYPTOPP561\SHA.CPP
C:\LMEFEED\LMESELECT FIX API KIT\CRYPTO\CRYPTOPP561\WIN32\DLL_OUTPUT\RELEASE\VC80.PDB
^C:\LMEFEED\LMESELECT FIX API KIT\CRYPTO\CRYPTOPP561\SIMPLE.CPP
C:\LMEFEED\LMESELECT FIX API KIT\CRYPTO\CRYPTOPP561\WIN32\DLL_OUTPUT\RELEASE\VC80.PDB
^C:\LMEFEED\LMESELECT FIX API KIT\CRYPTO\CRYPTOPP561\SKIPJACK.CPP
C:\LMEFEED\LMESELECT FIX API KIT\CRYPTO\CRYPTOPP561\WIN32\DLL_OUTPUT\RELEASE\VC80.PDB
^C:\LMEFEED\LMESELECT FIX API KIT\CRYPTO\CRYPTOPP561\STRCIPHR.CPP
C:\LMEFEED\LMESELECT FIX API KIT\CRYPTO\CRYPTOPP561\WIN32\DLL_OUTPUT\RELEASE\VC80.PDB
^C:\LMEFEED\LMESELECT FIX API KIT\CRYPTO\CRYPTOPP561\TRDLOCAL.CPP
C:\LMEFEED\LMESELECT FIX API KIT\CRYPTO\CRYPTOPP561\WIN32\DLL_OUTPUT\RELEASE\VC80.PDB
^C:\LMEFEED\LMESELECT FIX API KIT\CRYPTO\CRYPTOPP561\AUTHENC.CPP|C:\LMEFEED\LMESELECT FIX API KIT\CRYPTO\CRYPTOPP561\CCM.CPP|C:\LMEFEED\LMESELECT FIX API KIT\CRYPTO\CRYPTOPP561\CMAC.CPP|C:\LMEFEED\LMESELECT FIX API KIT\CRYPTO\CRYPTOPP561\CPU.CPP|C:\LMEFEED\LMESELECT FIX API KIT\CRYPTO\CRYPTOPP561\EMSA2.CPP|C:\LMEFEED\LMESELECT FIX API KIT\CRYPTO\CRYPTOPP561\GCM.CPP|C:\LMEFEED\LMESELECT FIX API KIT\CRYPTO\CRYPTOPP561\HRTIMER.CPP|C:\LMEFEED\LMESELECT FIX API KIT\CRYPTO\CRYPTOPP561\PSSR.CPP|C:\LMEFEED\LMESELECT FIX API KIT\CRYPTO\CRYPTOPP561\RW.CPP
C:\LMEFEED\LMESELECT FIX API KIT\CRYPTO\CRYPTOPP561\WIN32\CRYPTOPP\RELEASE\RW.OBJ
C:\LMEFEED\LMESELECT FIX API KIT\CRYPTO\CRYPTOPP561\WIN32\CRYPTOPP\RELEASE\PSSR.OBJ
C:\LMEFEED\LMESELECT FIX API KIT\CRYPTO\CRYPTOPP561\WIN32\CRYPTOPP\RELEASE\HRTIMER.OBJ
C:\LMEFEED\LMESELECT FIX API KIT\CRYPTO\CRYPTOPP561\WIN32\CRYPTOPP\RELEASE\GCM.OBJ
C:\LMEFEED\LMESELECT FIX API KIT\CRYPTO\CRYPTOPP561\WIN32\CRYPTOPP\RELEASE\EMSA2.OBJ
C:\LMEFEED\LMESELECT FIX API KIT\CRYPTO\CRYPTOPP561\WIN32\CRYPTOPP\RELEASE\CPU.OBJ
C:\LMEFEED\LMESELECT FIX API KIT\CRYPTO\CRYPTOPP561\WIN32\CRYPTOPP\RELEASE\CMAC.OBJ
C:\LMEFEED\LMESELECT FIX API KIT\CRYPTO\CRYPTOPP561\WIN32\CRYPTOPP\RELEASE\CCM.OBJ
C:\LMEFEED\LMESELECT FIX API KIT\CRYPTO\CRYPTOPP561\WIN32\CRYPTOPP\RELEASE\AUTHENC.OBJ
^C:\LMEFEED\LMESELECT FIX API KIT\CRYPTO\CRYPTOPP561\AUTHENC.CPP
C:\LMEFEED\LMESELECT FIX API KIT\CRYPTO\CRYPTOPP561\WIN32\DLL_OUTPUT\RELEASE\VC80.PDB
^C:\LMEFEED\LMESELECT FIX API KIT\CRYPTO\CRYPTOPP561\CCM.CPP
C:\LMEFEED\LMESELECT FIX API KIT\CRYPTO\CRYPTOPP561\WIN32\DLL_OUTPUT\RELEASE\VC80.PDB
^C:\LMEFEED\LMESELECT FIX API KIT\CRYPTO\CRYPTOPP561\CMAC.CPP
C:\LMEFEED\LMESELECT FIX API KIT\CRYPTO\CRYPTOPP561\WIN32\DLL_OUTPUT\RELEASE\VC80.PDB
^C:\LMEFEED\LMESELECT FIX API KIT\CRYPTO\CRYPTOPP561\CPU.CPP
C:\LMEFEED\LMESELECT FIX API KIT\CRYPTO\CRYPTOPP561\WIN32\DLL_OUTPUT\RELEASE\VC80.PDB
^C:\LMEFEED\LMESELECT FIX API KIT\CRYPTO\CRYPTOPP561\EMSA2.CPP
C:\LMEFEED\LMESELECT FIX API KIT\CRYPTO\CRYPTOPP561\WIN32\DLL_OUTPUT\RELEASE\VC80.PDB
^C:\LMEFEED\LMESELECT FIX API KIT\CRYPTO\CRYPTOPP561\GCM.CPP
C:\LMEFEED\LMESELECT FIX API KIT\CRYPTO\CRYPTOPP561\WIN32\DLL_OUTPUT\RELEASE\VC80.PDB
^C:\LMEFEED\LMESELECT FIX API KIT\CRYPTO\CRYPTOPP561\HRTIMER.CPP
C:\LMEFEED\LMESELECT FIX API KIT\CRYPTO\CRYPTOPP561\WIN32\DLL_OUTPUT\RELEASE\VC80.PDB
^C:\LMEFEED\LMESELECT FIX API KIT\CRYPTO\CRYPTOPP561\PSSR.CPP
C:\LMEFEED\LMESELECT FIX API KIT\CRYPTO\CRYPTOPP561\WIN32\DLL_OUTPUT\RELEASE\VC80.PDB
^C:\LMEFEED\LMESELECT FIX API KIT\CRYPTO\CRYPTOPP561\RW.CPP
C:\LMEFEED\LMESELECT FIX API KIT\CRYPTO\CRYPTOPP561\WIN32\DLL_OUTPUT\RELEASE\VC80.PDB
^C:\LMEFEED\LMESELECT FIX API KIT\CRYPTO\CRYPTOPP561\DLL.CPP|C:\LMEFEED\LMESELECT FIX API KIT\CRYPTO\CRYPTOPP561\ITERHASH.CPP
C:\LMEFEED\LMESELECT FIX API KIT\CRYPTO\CRYPTOPP561\WIN32\CRYPTOPP\RELEASE\ITERHASH.OBJ
C:\LMEFEED\LMESELECT FIX API KIT\CRYPTO\CRYPTOPP561\WIN32\CRYPTOPP\RELEASE\DLL.OBJ
^C:\LMEFEED\LMESELECT FIX API KIT\CRYPTO\CRYPTOPP561\DLL.CPP
C:\LMEFEED\LMESELECT FIX API KIT\CRYPTO\CRYPTOPP561\WIN32\DLL_OUTPUT\RELEASE\VC80.PDB
^C:\LMEFEED\LMESELECT FIX API KIT\CRYPTO\CRYPTOPP561\ITERHASH.CPP
C:\LMEFEED\LMESELECT FIX API KIT\CRYPTO\CRYPTOPP561\WIN32\DLL_OUTPUT\RELEASE\VC80.PDB
