^C:\LMEFEED\LMESELECT FIX API KIT\CRYPTO\CRYPTOPP561\WIN32\CRYPTOPP\DEBUG\ALGEBRA.OBJ|C:\LMEFEED\LMESELECT FIX API KIT\CRYPTO\CRYPTOPP561\WIN32\CRYPTOPP\DEBUG\ALGPARAM.OBJ|C:\LMEFEED\LMESELECT FIX API KIT\CRYPTO\CRYPTOPP561\WIN32\CRYPTOPP\DEBUG\ASN.OBJ|C:\LMEFEED\LMESELECT FIX API KIT\CRYPTO\CRYPTOPP561\WIN32\CRYPTOPP\DEBUG\AUTHENC.OBJ|C:\LMEFEED\LMESELECT FIX API KIT\CRYPTO\CRYPTOPP561\WIN32\CRYPTOPP\DEBUG\BASECODE.OBJ|C:\LMEFEED\LMESELECT FIX API KIT\CRYPTO\CRYPTOPP561\WIN32\CRYPTOPP\DEBUG\CBCMAC.OBJ|C:\LMEFEED\LMESELECT FIX API KIT\CRYPTO\CRYPTOPP561\WIN32\CRYPTOPP\DEBUG\CCM.OBJ|C:\LMEFEED\LMESELECT FIX API KIT\CRYPTO\CRYPTOPP561\WIN32\CRYPTOPP\DEBUG\CHANNELS.OBJ|C:\LMEFEED\LMESELECT FIX API KIT\CRYPTO\CRYPTOPP561\WIN32\CRYPTOPP\DEBUG\CMAC.OBJ|C:\LMEFEED\LMESELECT FIX API KIT\CRYPTO\CRYPTOPP561\WIN32\CRYPTOPP\DEBUG\CPU.OBJ|C:\LMEFEED\LMESELECT FIX API KIT\CRYPTO\CRYPTOPP561\WIN32\CRYPTOPP\DEBUG\CRYPTLIB.OBJ|C:\LMEFEED\LMESELECT FIX API KIT\CRYPTO\CRYPTOPP561\WIN32\CRYPTOPP\DEBUG\CRYPTOPP.RES|C:\LMEFEED\LMESELECT FIX API KIT\CRYPTO\CRYPTOPP561\WIN32\CRYPTOPP\DEBUG\DES.OBJ|C:\LMEFEED\LMESELECT FIX API KIT\CRYPTO\CRYPTOPP561\WIN32\CRYPTOPP\DEBUG\DESSP.OBJ|C:\LMEFEED\LMESELECT FIX API KIT\CRYPTO\CRYPTOPP561\WIN32\CRYPTOPP\DEBUG\DH.OBJ|C:\LMEFEED\LMESELECT FIX API KIT\CRYPTO\CRYPTOPP561\WIN32\CRYPTOPP\DEBUG\DLL.OBJ|C:\LMEFEED\LMESELECT FIX API KIT\CRYPTO\CRYPTOPP561\WIN32\CRYPTOPP\DEBUG\DSA.OBJ|C:\LMEFEED\LMESELECT FIX API KIT\CRYPTO\CRYPTOPP561\WIN32\CRYPTOPP\DEBUG\EC2N.OBJ|C:\LMEFEED\LMESELECT FIX API KIT\CRYPTO\CRYPTOPP561\WIN32\CRYPTOPP\DEBUG\ECCRYPTO.OBJ|C:\LMEFEED\LMESELECT FIX API KIT\CRYPTO\CRYPTOPP561\WIN32\CRYPTOPP\DEBUG\ECP.OBJ|C:\LMEFEED\LMESELECT FIX API KIT\CRYPTO\CRYPTOPP561\WIN32\CRYPTOPP\DEBUG\EMSA2.OBJ|C:\LMEFEED\LMESELECT FIX API KIT\CRYPTO\CRYPTOPP561\WIN32\CRYPTOPP\DEBUG\EPRECOMP.OBJ|C:\LMEFEED\LMESELECT FIX API KIT\CRYPTO\CRYPTOPP561\WIN32\CRYPTOPP\DEBUG\FILES.OBJ|C:\LMEFEED\LMESELECT FIX API KIT\CRYPTO\CRYPTOPP561\WIN32\CRYPTOPP\DEBUG\FILTERS.OBJ|C:\LMEFEED\LMESELECT FIX API KIT\CRYPTO\CRYPTOPP561\WIN32\CRYPTOPP\DEBUG\FIPS140.OBJ|C:\LMEFEED\LMESELECT FIX API KIT\CRYPTO\CRYPTOPP561\WIN32\CRYPTOPP\DEBUG\FIPSTEST.OBJ|C:\LMEFEED\LMESELECT FIX API KIT\CRYPTO\CRYPTOPP561\WIN32\CRYPTOPP\DEBUG\GCM.OBJ|C:\LMEFEED\LMESELECT FIX API KIT\CRYPTO\CRYPTOPP561\WIN32\CRYPTOPP\DEBUG\GF2N.OBJ|C:\LMEFEED\LMESELECT FIX API KIT\CRYPTO\CRYPTOPP561\WIN32\CRYPTOPP\DEBUG\GFPCRYPT.OBJ|C:\LMEFEED\LMESELECT FIX API KIT\CRYPTO\CRYPTOPP561\WIN32\CRYPTOPP\DEBUG\HEX.OBJ|C:\LMEFEED\LMESELECT FIX API KIT\CRYPTO\CRYPTOPP561\WIN32\CRYPTOPP\DEBUG\HMAC.OBJ|C:\LMEFEED\LMESELECT FIX API KIT\CRYPTO\CRYPTOPP561\WIN32\CRYPTOPP\DEBUG\HRTIMER.OBJ|C:\LMEFEED\LMESELECT FIX API KIT\CRYPTO\CRYPTOPP561\WIN32\CRYPTOPP\DEBUG\INTEGER.OBJ|C:\LMEFEED\LMESELECT FIX API KIT\CRYPTO\CRYPTOPP561\WIN32\CRYPTOPP\DEBUG\ITERHASH.OBJ|C:\LMEFEED\LMESELECT FIX API KIT\CRYPTO\CRYPTOPP561\WIN32\CRYPTOPP\DEBUG\MISC.OBJ|C:\LMEFEED\LMESELECT FIX API KIT\CRYPTO\CRYPTOPP561\WIN32\CRYPTOPP\DEBUG\MODES.OBJ|C:\LMEFEED\LMESELECT FIX API KIT\CRYPTO\CRYPTOPP561\WIN32\CRYPTOPP\DEBUG\MQUEUE.OBJ|C:\LMEFEED\LMESELECT FIX API KIT\CRYPTO\CRYPTOPP561\WIN32\CRYPTOPP\DEBUG\NBTHEORY.OBJ|C:\LMEFEED\LMESELECT FIX API KIT\CRYPTO\CRYPTOPP561\WIN32\CRYPTOPP\DEBUG\OAEP.OBJ|C:\LMEFEED\LMESELECT FIX API KIT\CRYPTO\CRYPTOPP561\WIN32\CRYPTOPP\DEBUG\OSRNG.OBJ|C:\LMEFEED\LMESELECT FIX API KIT\CRYPTO\CRYPTOPP561\WIN32\CRYPTOPP\DEBUG\PCH.OBJ|C:\LMEFEED\LMESELECT FIX API KIT\CRYPTO\CRYPTOPP561\WIN32\CRYPTOPP\DEBUG\PKCSPAD.OBJ|C:\LMEFEED\LMESELECT FIX API KIT\CRYPTO\CRYPTOPP561\WIN32\CRYPTOPP\DEBUG\PSSR.OBJ|C:\LMEFEED\LMESELECT FIX API KIT\CRYPTO\CRYPTOPP561\WIN32\CRYPTOPP\DEBUG\PUBKEY.OBJ|C:\LMEFEED\LMESELECT FIX API KIT\CRYPTO\CRYPTOPP561\WIN32\CRYPTOPP\DEBUG\QUEUE.OBJ|C:\LMEFEED\LMESELECT FIX API KIT\CRYPTO\CRYPTOPP561\WIN32\CRYPTOPP\DEBUG\RANDPOOL.OBJ|C:\LMEFEED\LMESELECT FIX API KIT\CRYPTO\CRYPTOPP561\WIN32\CRYPTOPP\DEBUG\RDTABLES.OBJ|C:\LMEFEED\LMESELECT FIX API KIT\CRYPTO\CRYPTOPP561\WIN32\CRYPTOPP\DEBUG\RIJNDAEL.OBJ|C:\LMEFEED\LMESELECT FIX API KIT\CRYPTO\CRYPTOPP561\WIN32\CRYPTOPP\DEBUG\RNG.OBJ|C:\LMEFEED\LMESELECT FIX API KIT\CRYPTO\CRYPTOPP561\WIN32\CRYPTOPP\DEBUG\RSA.OBJ|C:\LMEFEED\LMESELECT FIX API KIT\CRYPTO\CRYPTOPP561\WIN32\CRYPTOPP\DEBUG\RW.OBJ|C:\LMEFEED\LMESELECT FIX API KIT\CRYPTO\CRYPTOPP561\WIN32\CRYPTOPP\DEBUG\SHA.OBJ|C:\LMEFEED\LMESELECT FIX API KIT\CRYPTO\CRYPTOPP561\WIN32\CRYPTOPP\DEBUG\SIMPLE.OBJ|C:\LMEFEED\LMESELECT FIX API KIT\CRYPTO\CRYPTOPP561\WIN32\CRYPTOPP\DEBUG\SKIPJACK.OBJ|C:\LMEFEED\LMESELECT FIX API KIT\CRYPTO\CRYPTOPP561\WIN32\CRYPTOPP\DEBUG\STRCIPHR.OBJ|C:\LMEFEED\LMESELECT FIX API KIT\CRYPTO\CRYPTOPP561\WIN32\CRYPTOPP\DEBUG\TRDLOCAL.OBJ
C:\LMEFEED\LMESELECT FIX API KIT\CRYPTO\CRYPTOPP561\WIN32\DLL_OUTPUT\DEBUG\CRYPTOPP.DLL
C:\LMEFEED\LMESELECT FIX API KIT\CRYPTO\CRYPTOPP561\WIN32\DLL_OUTPUT\DEBUG\CRYPTOPP.PDB
